%YAML 1.1
%TAG !u! tag:unity3d.com,2011:
--- !u!114 &11400000
MonoBehaviour:
  m_ObjectHideFlags: 0
  m_CorrespondingSourceObject: {fileID: 0}
  m_PrefabInstance: {fileID: 0}
  m_PrefabAsset: {fileID: 0}
  m_GameObject: {fileID: 0}
  m_Enabled: 1
  m_EditorHideFlags: 0
  m_Script: {fileID: 11500000, guid: 4072814a6baa62045b119994d13bcd72, type: 3}
  m_Name: UICanvasSettings
  m_EditorClassIdentifier: 
  database: {fileID: 11400000, guid: 23a3b4a4d29eec74885fb790d6aa5346, type: 2}
  DontDestroyCanvasOnLoad: 1
  RenamePrefix: 'Canvas - '
  RenameSuffix: 
